,Country,1990,1991,1992,1993,1994,1995,1996,1997,1998,1999,2000,2001,2002,2003,2004,2005,2006,2007,2008,2009,2010,2011
0,China,730.7724890448219,787.867435156269,888.911004119008,1000.61180975351,1118.49957748173,1227.55640691521,1335.36268011202,1443.77474185404,1542.06412996664,1645.98799567879,1771.7415057953897,1905.61078010947,2065.71857925612,2258.91210541049,2472.58655569402,2738.2054599526,3069.3047809513696,3487.84576561013,3805.02599866378,4142.03828597868,4560.512586009289,4971.544928635
1,United States,36312.4141825874,35803.868421343905,36566.1737698527,37078.04968394,38104.9724675631,38677.7150883663,39681.5198579033,40965.8466450522,42292.8912011426,43768.884992832594,45055.817918284,45047.48719768441,45428.6456781274,46304.0360895612,47614.2798621765,48755.6160606735,49575.401013591,49979.5338429195,49364.644550033605,47575.608562749,48373.878815577904,48783.4685866408
2,India,536.162785952242,530.894738000648,548.895783827753,563.74968766069,589.70878759027,622.303683083803,656.697143961351,670.610121594673,699.0688547177431,747.25203565058,762.3133408050661,785.3446280611611,801.5079326855321,850.293264901655,902.9057943507561,971.229760739138,1044.8939404376,1130.09007066353,1156.93252713628,1237.33978594471,1345.77015320886,1416.40339128641
3,Russia,,,,,,,,,,,,,,,,,,,,,,
4,Japan,37906.1637024172,39044.9272685783,39267.1202427963,39237.3266924184,39441.5707298458,40368.7051086109,41514.8624950739,41861.9110380264,41277.0774763816,41097.9611955571,42169.6978757344,42239.1130886031,42190.7786326809,42743.9939102079,43671.6803574739,44393.662740098895,44995.5215075646,45687.345750770095,45165.887161943094,42724.534911262796,44507.6763859172,44538.708086390194
5,Germany,32337.101022619703,33742.2192171049,34130.852397553,33583.0060357251,34289.1247492873,34782.5686253047,34965.6908864708,35560.2092859448,36258.6744317081,36955.2896071002,37998.425311999104,38577.7256293297,38512.9200411024,38218.3496455934,38673.8881132052,38969.3216980632,40456.8573802769,41831.8670883098,42365.0974955812,40086.104759441696,41785.556912554,44125.3314116503
6,Iran,,,,,,,,,,,,,,,,,,,,,,
7,South Korea,,,,,,,,,,,,,,,,,,,,,,
8,Canada,36489.2663535682,35231.021206047204,35108.5190377961,35648.4779876294,36893.981885530804,37569.4682404423,37765.7324508268,38967.9531013894,40131.7018339628,41856.045592390095,43638.283154814504,43964.9545940366,44883.828395515,45239.811390679504,46170.9201965306,47181.5623940446,48035.035791904906,48552.6964313308,48510.5677732731,46543.7921999113,47447.4760241936,48456.9645742468
9,South Africa,5934.2241161519605,5739.73331217938,5485.4411271779,5423.5879502245,5474.19692985421,5528.169471476279,5657.32791037655,5706.17480392172,5643.2614851174,5688.3085121265,5837.88517841162,5912.67012073949,6045.96318799062,6142.94031187194,6343.0297472784305,6599.35652472708,6892.36241269015,7185.7529988788,7337.84017375611,7145.78412283471,7275.382111936421,7416.71618531578
10,Indonesia,1707.5979177034699,1794.1887987743698,1878.7098602479998,1968.1241364128198,2083.06368170835,2219.8110581361398,2357.9593514244298,2433.3405076085396,2084.23454844949,2071.5506297140696,2143.38989039205,2190.7661797947103,2257.74685507094,2333.09748333113,2416.83638933237,2519.5098415279,2621.96039791854,2750.61514270465,2876.88504026904,2970.0441310657898,3113.4806345143297,3262.7486126075
11,Saudi Arabia,18002.738727261498,20040.4957041795,20226.8542212626,19413.782932758502,19041.0583983076,18648.856867078102,18744.7805145329,18588.3043453831,18763.5859281919,17690.917568778998,18263.2300818186,17585.390454968,16619.4346590337,17954.9497936841,18822.7300411973,19309.3120670672,19304.5502317946,19136.1592335417,19792.7203836535,18861.1099983952,19259.5872568465,20575.4979506353
12,Mexico,7257.93108174907,7415.50601032375,7532.607785608509,7685.21740256496,7896.1205975456905,7307.17697825048,7603.70898136384,7999.85794210516,8245.49392514536,8340.56385750001,8659.79725352063,8494.83885088078,8401.01586690823,8416.9042657497,8667.28855532868,8808.56356491149,9108.06544957465,9253.31771559193,9232.19731607389,8657.836028711941,8959.5814158753,9183.32807775507
13,United Kingdom,28691.2928745059,28291.921960378197,28321.034526205898,28967.1550453556,30014.581398898197,30674.6055465252,31373.3411897037,32556.3166954329,33480.1660134045,34442.1070945849,35576.7668473642,36341.7097504855,37077.6483548939,38132.8410859077,38813.0216936727,39740.9029213191,40418.747304742996,41050.4059264847,40536.1348574428,38545.9158164225,38893.0184937365,39150.756018511296
14,Brazil,7986.045872969041,7966.79646758777,7796.841830898659,8027.189384307149,8319.20902382918,8547.941159706941,8598.01495879817,8750.27405767678,8644.4208430246,8554.83443909603,8778.18814081675,8776.86371936394,8924.33352798132,8910.85562414267,9309.008195139879,9495.104939130071,9761.87640157734,10245.23081298,10658.2253077189,10540.1087666864,11224.1540829355,11559.2122714428
15,Italy,30839.278333372997,31292.053094606803,31531.6900203869,31243.6790226551,31909.236710549103,32829.8827518868,33242.8522991256,33835.0731328908,34371.9820181408,34902.262126968504,36180.778333289905,36801.2938105496,36837.863985999196,36729.9755411316,37070.3305155452,37238.9365291342,37872.1683558927,38236.7956108395,37585.3373525671,35363.4004619474,35849.3731979401,35994.1335816766
16,Australia,35827.0967196418,35240.582540066,34967.517724019905,36033.635884343195,37098.7987775714,38078.903947084706,39065.9243827866,40156.3352495743,41504.4958976453,43087.4467189905,44223.5912367361,44473.4086078834,45626.622031273204,46449.8451866154,47817.8992322005,48702.734693348,49418.686319594104,50952.467037889,51788.440148049005,51651.22325755769,51874.080481995705,52372.1545375312
17,France,32596.0051876225,32908.5579690992,33269.1469119185,32922.3630027908,33569.3308859262,34145.7054163291,34497.283907824196,35178.9345385494,36295.9353465198,37339.9809749041,38522.2102787019,38990.3061332386,39140.714763659504,39182.7793888923,39979.1197150554,40316.8127598175,40987.5490759697,41696.692239255,41545.2940923558,40116.3795272806,40703.3459209005,41349.1915705484
18,Poland,5946.67084991613,5509.90030429047,5631.17683882957,5826.84237041249,6122.31312820176,6539.04667176875,6929.815426937421,7372.622950933421,7710.0864099906,8068.674760884741,8525.13950212083,8633.915227188101,8814.267306253141,9134.43606899495,9609.16963452197,9949.252839455909,10570.7739026765,11320.552874904599,11800.0343836346,12124.6071954569,12597.862389964099,13222.8149952841
19,Ukraine,3965.38272260404,3624.29263348752,3263.3718571305103,2797.5684059844702,2166.6930208063395,1917.4513715329501,1741.08871439694,1704.3140236586999,1686.94178709922,1699.51747282766,1817.9971010935699,2005.3151415287698,2130.65855856673,2349.93150771578,2654.33354768562,2746.0498020290397,2966.50006223766,3220.01355748416,3311.9584095409496,2834.34324513462,2965.1423654977098,3138.4650700149396
20,Turkey,6774.40675010578,6708.88126741793,6931.900406057261,7343.09352768899,6889.594051419399,7315.1764315255205,7731.174984716421,8186.24148944732,8244.49662659088,7842.59386247354,8237.34215790948,7631.4031830935,8003.479393602231,8331.75789188593,9009.594524906708,9691.8159457902,10251.0454642528,10637.7191138148,10599.2881843679,9973.34056855175,10672.0548208629,11683.226418998502
21,Spain,22464.7329153987,22978.125019001698,23078.3360923639,22722.1546792394,23153.1727955438,23686.843485455,24219.3275848937,25007.8943666805,25977.0009830159,27032.220713911698,28335.001833327,29264.8814529131,29685.3639494669,30082.6264787606,30504.357430610296,31110.0141282392,31865.369166663197,32459.9173758671,32303.2414806061,30874.126012677003,30736.6278530812,30321.7048688993
22,Thailand,2502.7127179100103,2684.8452313223997,2872.79787185008,3081.75303549132,3297.86779352882,3530.29398493076,3688.93420348057,3545.38806104305,3235.7322429727,3345.15601545615,3458.05393141622,3544.20834359561,3731.02710706035,3969.4155657393394,4190.032275697879,4337.26335679049,4525.15928176155,4744.33322739726,4800.81053710194,4743.690471710321,5075.30217639529,5093.58050034404
23,Taiwan,,,,,,,,,,,,,,,,,,,,,,
24,Kazakhstan,5890.27604343,5209.68159952491,4936.9912513304,4512.62020400203,4001.66928058981,3738.4694732997204,3814.4993269540705,3941.1248478657794,3933.5577676300604,4078.42679261378,4491.591823330639,5106.634167010349,5606.85299741729,6107.709259303039,6647.69212950055,7227.982948989191,7917.195342356891,8523.76620458622,8698.42365362226,8573.772759107309,9070.64997199985,9603.593250427091
25,Egypt,,,,,,,,,,,,,,,,,,,,,,
26,Malaysia,4534.79516750057,4835.99192069421,5131.83120313103,5500.1169703286405,5858.94810639242,6275.11575654621,6729.523940406159,7040.79047145522,6360.94933120729,6589.6037488628,7009.60173993548,6893.2805132720805,7114.816741041279,7377.3081937676,7725.84502041922,7983.891493694699,8273.66198942654,8889.684191754059,9020.39970254535,8635.11672182396,9071.35698672103,9377.18756674544
27,Venezuela,,,,,,,,,,,,,,,,,,,,,,
28,Argentina,5939.75691560173,6598.722634827429,7285.42942771472,7612.68115329614,7952.71155173317,7630.02227409899,7955.127651762779,8500.94036184635,8728.94765116614,8339.89438868086,8182.686502308679,7735.4933643901095,6816.734855377779,7337.79203783303,7913.74312362482,8522.52273238782,9112.11316338653,9830.680919822042,10125.1262721185,9428.50254117176,10276.2604977053,10780.0156577357
29,Netherlands,35483.299495835,36063.4708505602,36402.4728942336,36604.233481752,37461.5661613717,38438.5538435132,39626.2926643833,41117.9632906548,42714.5130141436,44574.6884624324,46133.176346003,46758.876750027404,46509.5171375534,46422.024850388,47200.424693034,48107.5854897237,49720.394858048,51447.2595860077,52118.0925554466,49897.225168325705,50338.2548273725,50937.5529376309
